<?xml version="1.0" encoding="utf-8"?>
<!-- Generator: Adobe Illustrator 23.0.2, SVG Export Plug-In . SVG Version: 6.00 Build 0)  -->
<svg version="1.1" id="Layer_1" xmlns="http://www.w3.org/2000/svg" xmlns:xlink="http://www.w3.org/1999/xlink" x="0px" y="0px"
	 viewBox="0 0 29 55" style="enable-background:new 0 0 29 55;" xml:space="preserve">
<style type="text/css">
	.st0{fill:#FFFFFF;}
</style>
<g>
	<polygon class="st0" points="1.4,17.6 3.7,23.5 15.2,12.1 26.6,23.5 28.9,17.5 15.2,3.8 	"/>
	<polygon class="st0" points="4.5,25.5 6.8,31.5 15.2,23.1 23.6,31.4 25.9,25.5 15.2,14.8 	"/>
	<polygon class="st0" points="7.6,33.4 9.9,39.4 15.2,34.1 20.5,39.4 22.8,33.4 15.2,25.8 	"/>
	<path class="st0" d="M4.6,47.5l2.3,5.9l0,0c4.6-4.6,12-4.6,16.6,0l0,0l2.3-6L15.2,36.8L4.6,47.5z"/>
</g>
</svg>
